# Blender v2.75 (sub 0) OBJ File: 'Tour-laser1.2.blend'
# www.blender.org
mtllib Tour-laser1.2.mtl
o Cylinder.002_Cylinder.004
v 0.453145 -0.236479 3.326336
v -0.720968 -0.197584 3.235580
v 0.629718 -0.555432 3.033231
v -0.575019 -0.461218 2.993312
v 0.628138 -0.555451 2.613481
v -0.576326 -0.461233 2.646365
v 0.449329 -0.236525 2.312972
v -0.724121 -0.197622 2.397976
v 0.450485 0.228871 2.312990
v -0.723165 0.187054 2.397992
v 0.630928 0.568113 2.613527
v -0.574019 0.467457 2.646403
v 0.632509 0.568132 3.033277
v -0.572713 0.467473 2.993350
v 0.454301 0.228916 3.326355
v -0.720012 0.187092 3.235596
v 0.630648 -0.180911 3.033246
v 0.631578 0.193610 3.033261
v 0.629068 -0.180930 2.613497
v 0.629998 0.193591 2.613512
v 0.629393 -0.368181 2.823364
v 0.631253 0.380861 2.823394
v 1.226188 -0.033301 2.858682
v 1.226464 0.043143 2.858686
v 1.225907 -0.033307 2.783925
v 1.226183 0.043136 2.783929
v 1.225965 -0.056280 2.821298
v 1.226406 0.066115 2.821313
v 1.178201 -0.115172 2.956276
v 1.178799 0.125368 2.956286
v 1.177186 -0.115185 2.686688
v 1.177784 0.125356 2.686698
v 1.177395 -0.235448 2.821477
v 1.178590 0.245632 2.821497
v 1.402716 -0.033937 2.858017
v 1.402992 0.042507 2.858021
v 1.402435 -0.033944 2.783260
v 1.402711 0.042500 2.783265
v 1.402493 -0.056916 2.820634
v 1.402934 0.065479 2.820648
v 1.376581 -0.078687 2.901429
v 1.540016 0.086902 2.739490
v 1.376581 0.086917 2.901439
v 1.376581 -0.078702 2.739480
v 1.376581 0.086902 2.739490
v 1.540016 0.086917 2.901439
v 1.540016 -0.078687 2.901429
v 1.540016 -0.078702 2.739480
vn -0.078200 -0.697700 0.712100
vn -0.078000 -0.997000 0.000300
vn -0.074400 -0.705700 -0.704600
vn -0.072200 0.000200 -0.997400
vn -0.076900 0.683800 -0.725600
vn -0.083200 0.996500 0.000300
vn -0.080700 0.675600 0.732900
vn -0.077100 0.000200 0.997000
vn -0.858400 0.002100 0.513000
vn -1.000000 0.002500 0.003800
vn -0.855500 0.002100 -0.517700
vn 0.179000 0.733600 -0.655600
vn 0.003800 -0.000100 1.000000
vn 0.183500 0.733600 0.654300
vn 0.132400 -0.000300 -0.991200
vn 0.139200 -0.000400 0.990300
vn 0.175600 -0.734400 -0.655600
vn 0.180200 -0.734500 0.654300
vn 1.000000 -0.002500 -0.003800
vn 0.855500 -0.002100 0.517700
vn 0.858400 -0.002100 -0.513000
vn 0.897800 -0.002200 0.440400
vn 0.894800 -0.002200 -0.446500
vn 0.928900 -0.318000 0.189900
vn 0.942200 0.250700 0.222300
vn 0.939500 -0.254900 -0.228900
vn 0.929000 0.312800 -0.197900
vn 1.000000 -0.003600 -0.003800
vn 0.001100 0.851900 -0.523700
vn 0.005000 0.851900 0.523600
vn -0.003800 0.000100 -1.000000
vn -0.005000 -0.851900 -0.523600
vn -0.001100 -0.851900 0.523700
vn -1.000000 0.000000 0.000000
vn 1.000000 -0.000000 0.000000
vn 0.000000 1.000000 -0.000100
vn -0.000000 0.000100 -1.000000
vn 0.000000 -0.000100 1.000000
vn -0.000000 -1.000000 0.000100
vn 0.898500 -0.003300 0.439000
vn 0.894100 -0.003200 -0.447800
vn 0.941200 -0.254900 0.221800
vn 0.930400 0.312800 0.190800
vn 0.927400 -0.318000 -0.196900
vn 0.940500 0.250700 -0.229400
usemtl None
s off
f 1//1 2//1 4//1
f 4//2 6//2 5//2
f 6//3 8//3 7//3
f 7//4 8//4 10//4
f 9//5 10//5 12//5
f 11//6 12//6 14//6
f 14//7 16//7 15//7
f 16//8 2//8 1//8
f 6//9 12//9 10//9
f 4//10 14//10 12//10
f 4//11 2//11 16//11
f 20//12 22//12 34//12
f 23//13 35//13 36//13
f 18//14 30//14 34//14
f 20//15 32//15 31//15
f 18//16 17//16 29//16
f 19//17 31//17 33//17
f 17//18 21//18 33//18
f 3//19 5//19 11//19
f 3//20 13//20 15//20
f 5//21 7//21 9//21
f 24//22 30//22 29//22
f 25//23 31//23 32//23
f 27//24 23//24 29//24
f 28//25 34//25 30//25
f 27//26 33//26 31//26
f 28//27 26//27 32//27
f 36//28 35//28 38//28
f 26//29 28//29 40//29
f 24//30 36//30 40//30
f 26//31 38//31 37//31
f 27//32 25//32 37//32
f 27//33 39//33 35//33
f 45//34 44//34 41//34
f 42//35 46//35 47//35
f 43//36 46//36 42//36
f 44//37 45//37 42//37
f 41//38 47//38 46//38
f 44//39 48//39 47//39
f 3//1 1//1 4//1
f 3//2 4//2 5//2
f 5//3 6//3 7//3
f 9//4 7//4 10//4
f 11//5 9//5 12//5
f 13//6 11//6 14//6
f 13//7 14//7 15//7
f 15//8 16//8 1//8
f 8//9 6//9 10//9
f 6//10 4//10 12//10
f 14//11 4//11 16//11
f 32//12 20//12 34//12
f 24//13 23//13 36//13
f 22//14 18//14 34//14
f 19//15 20//15 31//15
f 30//16 18//16 29//16
f 21//17 19//17 33//17
f 29//18 17//18 33//18
f 13//19 3//19 11//19
f 1//20 3//20 15//20
f 11//21 5//21 9//21
f 23//40 24//40 29//40
f 26//41 25//41 32//41
f 33//42 27//42 29//42
f 24//43 28//43 30//43
f 25//44 27//44 31//44
f 34//45 28//45 32//45
f 38//28 40//28 36//28
f 35//28 37//28 38//28
f 37//28 35//28 39//28
f 38//29 26//29 40//29
f 28//30 24//30 40//30
f 25//31 26//31 37//31
f 39//32 27//32 37//32
f 23//33 27//33 35//33
f 43//34 45//34 41//34
f 48//35 42//35 47//35
f 45//36 43//36 42//36
f 48//37 44//37 42//37
f 43//38 41//38 46//38
f 41//39 44//39 47//39
o Cylinder
v 0.923880 0.382683 0.000039
v 0.230613 0.000000 2.072790
v 0.923880 -0.382683 0.000039
v 0.382683 -0.923880 0.000039
v 0.001747 -0.228865 2.072790
v -0.382683 -0.923880 0.000039
v -0.923880 -0.382683 0.000039
v -0.227118 0.000000 2.072790
v -0.923879 0.382684 0.000039
v -0.382683 0.923880 0.000039
v 0.001747 0.228865 2.072790
v 0.382683 0.923880 0.000039
v -0.000000 0.646835 2.000039
v -0.646835 0.000000 2.000039
v 0.646835 0.000000 2.000039
v 0.000000 -0.646835 2.000039
v 0.241040 0.000000 2.507002
v 0.012174 -0.228865 2.507002
v -0.216691 0.000000 2.507002
v 0.012174 0.228865 2.507002
vn 0.990500 0.000000 0.137200
vn 0.688600 -0.688600 0.227200
vn 0.000000 -0.990500 0.137200
vn -0.688600 -0.688600 0.227200
vn -0.990500 0.000000 0.137200
vn -0.688600 0.688600 0.227200
vn 0.707000 -0.707000 -0.017000
vn -0.000000 0.990500 0.137200
vn 0.688600 0.688600 0.227200
vn 0.000000 0.000000 -1.000000
vn -0.168400 0.168400 0.971200
vn 0.169700 0.169700 0.970800
vn 0.169700 -0.169700 0.970800
vn -0.168400 -0.168400 0.971200
vn 0.000000 0.000000 1.000000
vn -0.707000 0.707000 0.017000
vn -0.707000 -0.707000 0.017000
vn 0.707000 0.707000 -0.017000
vn -0.168300 -0.168400 0.971200
usemtl None
s off
f 49//46 63//46 51//46
f 63//47 64//47 52//47
f 52//48 64//48 54//48
f 64//49 62//49 55//49
f 55//50 62//50 57//50
f 57//51 62//51 61//51
f 50//52 65//52 66//52
f 58//53 61//53 60//53
f 61//54 63//54 49//54
f 49//55 52//55 55//55
f 56//56 59//56 61//56
f 59//57 50//57 63//57
f 53//58 64//58 63//58
f 56//59 62//59 64//59
f 65//60 68//60 67//60
f 59//61 56//61 67//61
f 53//62 66//62 67//62
f 50//63 59//63 68//63
f 51//47 63//47 52//47
f 54//49 64//49 55//49
f 58//51 57//51 61//51
f 53//52 50//52 66//52
f 60//54 61//54 49//54
f 58//55 60//55 49//55
f 55//55 57//55 58//55
f 52//55 54//55 55//55
f 49//55 51//55 52//55
f 55//55 58//55 49//55
f 62//56 56//56 61//56
f 61//57 59//57 63//57
f 50//58 53//58 63//58
f 53//64 56//64 64//64
f 66//60 65//60 67//60
f 68//61 59//61 67//61
f 56//62 53//62 67//62
f 65//63 50//63 68//63
